%!PS-Adobe-2.0 EPSF-2.0
%%Title: speed_parallelism-hm-text-1129.eps
%%Creator: gnuplot 4.4 patchlevel 4
%%CreationDate: Mon Jun 24 12:10:32 2013
%%DocumentFonts: (atend)
%%BoundingBox: 50 50 319 234
%%EndComments
%%BeginProlog
/gnudict 256 dict def
gnudict begin
%
% The following true/false flags may be edited by hand if desired.
% The unit line width and grayscale image gamma correction may also be changed.
%
/Color false def
/Blacktext false def
/Solid false def
/Dashlength 1 def
/Landscape false def
/Level1 false def
/Rounded false def
/ClipToBoundingBox false def
/TransparentPatterns false def
/gnulinewidth 5.000 def
/userlinewidth gnulinewidth def
/Gamma 1.0 def
%
/vshift -46 def
/dl1 {
  10.0 Dashlength mul mul
  Rounded { currentlinewidth 0.75 mul sub dup 0 le { pop 0.01 } if } if
} def
/dl2 {
  10.0 Dashlength mul mul
  Rounded { currentlinewidth 0.75 mul add } if
} def
/hpt_ 31.5 def
/vpt_ 31.5 def
/hpt hpt_ def
/vpt vpt_ def
Level1 {} {
/SDict 10 dict def
systemdict /pdfmark known not {
  userdict /pdfmark systemdict /cleartomark get put
} if
SDict begin [
  /Title (speed_parallelism-hm-text-1129.eps)
  /Subject (gnuplot plot)
  /Creator (gnuplot 4.4 patchlevel 4)
  /Author (arinto)
%  /Producer (gnuplot)
%  /Keywords ()
  /CreationDate (Mon Jun 24 12:10:32 2013)
  /DOCINFO pdfmark
end
} ifelse
/doclip {
  ClipToBoundingBox {
    newpath 50 50 moveto 319 50 lineto 319 234 lineto 50 234 lineto closepath
    clip
  } if
} def
%
% Gnuplot Prolog Version 4.4 (August 2010)
%
%/SuppressPDFMark true def
%
/M {moveto} bind def
/L {lineto} bind def
/R {rmoveto} bind def
/V {rlineto} bind def
/N {newpath moveto} bind def
/Z {closepath} bind def
/C {setrgbcolor} bind def
/f {rlineto fill} bind def
/g {setgray} bind def
/Gshow {show} def   % May be redefined later in the file to support UTF-8
/vpt2 vpt 2 mul def
/hpt2 hpt 2 mul def
/Lshow {currentpoint stroke M 0 vshift R 
	Blacktext {gsave 0 setgray show grestore} {show} ifelse} def
/Rshow {currentpoint stroke M dup stringwidth pop neg vshift R
	Blacktext {gsave 0 setgray show grestore} {show} ifelse} def
/Cshow {currentpoint stroke M dup stringwidth pop -2 div vshift R 
	Blacktext {gsave 0 setgray show grestore} {show} ifelse} def
/UP {dup vpt_ mul /vpt exch def hpt_ mul /hpt exch def
  /hpt2 hpt 2 mul def /vpt2 vpt 2 mul def} def
/DL {Color {setrgbcolor Solid {pop []} if 0 setdash}
 {pop pop pop 0 setgray Solid {pop []} if 0 setdash} ifelse} def
/BL {stroke userlinewidth 2 mul setlinewidth
	Rounded {1 setlinejoin 1 setlinecap} if} def
/AL {stroke userlinewidth 2 div setlinewidth
	Rounded {1 setlinejoin 1 setlinecap} if} def
/UL {dup gnulinewidth mul /userlinewidth exch def
	dup 1 lt {pop 1} if 10 mul /udl exch def} def
/PL {stroke userlinewidth setlinewidth
	Rounded {1 setlinejoin 1 setlinecap} if} def
3.8 setmiterlimit
% Default Line colors
/LCw {1 1 1} def
/LCb {0 0 0} def
/LCa {0 0 0} def
/LC0 {1 0 0} def
/LC1 {0 1 0} def
/LC2 {0 0 1} def
/LC3 {1 0 1} def
/LC4 {0 1 1} def
/LC5 {1 1 0} def
/LC6 {0 0 0} def
/LC7 {1 0.3 0} def
/LC8 {0.5 0.5 0.5} def
% Default Line Types
/LTw {PL [] 1 setgray} def
/LTb {BL [] LCb DL} def
/LTa {AL [1 udl mul 2 udl mul] 0 setdash LCa setrgbcolor} def
/LT0 {PL [] LC0 DL} def
/LT1 {PL [4 dl1 2 dl2] LC1 DL} def
/LT2 {PL [2 dl1 3 dl2] LC2 DL} def
/LT3 {PL [1 dl1 1.5 dl2] LC3 DL} def
/LT4 {PL [6 dl1 2 dl2 1 dl1 2 dl2] LC4 DL} def
/LT5 {PL [3 dl1 3 dl2 1 dl1 3 dl2] LC5 DL} def
/LT6 {PL [2 dl1 2 dl2 2 dl1 6 dl2] LC6 DL} def
/LT7 {PL [1 dl1 2 dl2 6 dl1 2 dl2 1 dl1 2 dl2] LC7 DL} def
/LT8 {PL [2 dl1 2 dl2 2 dl1 2 dl2 2 dl1 2 dl2 2 dl1 4 dl2] LC8 DL} def
/Pnt {stroke [] 0 setdash gsave 1 setlinecap M 0 0 V stroke grestore} def
/Dia {stroke [] 0 setdash 2 copy vpt add M
  hpt neg vpt neg V hpt vpt neg V
  hpt vpt V hpt neg vpt V closepath stroke
  Pnt} def
/Pls {stroke [] 0 setdash vpt sub M 0 vpt2 V
  currentpoint stroke M
  hpt neg vpt neg R hpt2 0 V stroke
 } def
/Box {stroke [] 0 setdash 2 copy exch hpt sub exch vpt add M
  0 vpt2 neg V hpt2 0 V 0 vpt2 V
  hpt2 neg 0 V closepath stroke
  Pnt} def
/Crs {stroke [] 0 setdash exch hpt sub exch vpt add M
  hpt2 vpt2 neg V currentpoint stroke M
  hpt2 neg 0 R hpt2 vpt2 V stroke} def
/TriU {stroke [] 0 setdash 2 copy vpt 1.12 mul add M
  hpt neg vpt -1.62 mul V
  hpt 2 mul 0 V
  hpt neg vpt 1.62 mul V closepath stroke
  Pnt} def
/Star {2 copy Pls Crs} def
/BoxF {stroke [] 0 setdash exch hpt sub exch vpt add M
  0 vpt2 neg V hpt2 0 V 0 vpt2 V
  hpt2 neg 0 V closepath fill} def
/TriUF {stroke [] 0 setdash vpt 1.12 mul add M
  hpt neg vpt -1.62 mul V
  hpt 2 mul 0 V
  hpt neg vpt 1.62 mul V closepath fill} def
/TriD {stroke [] 0 setdash 2 copy vpt 1.12 mul sub M
  hpt neg vpt 1.62 mul V
  hpt 2 mul 0 V
  hpt neg vpt -1.62 mul V closepath stroke
  Pnt} def
/TriDF {stroke [] 0 setdash vpt 1.12 mul sub M
  hpt neg vpt 1.62 mul V
  hpt 2 mul 0 V
  hpt neg vpt -1.62 mul V closepath fill} def
/DiaF {stroke [] 0 setdash vpt add M
  hpt neg vpt neg V hpt vpt neg V
  hpt vpt V hpt neg vpt V closepath fill} def
/Pent {stroke [] 0 setdash 2 copy gsave
  translate 0 hpt M 4 {72 rotate 0 hpt L} repeat
  closepath stroke grestore Pnt} def
/PentF {stroke [] 0 setdash gsave
  translate 0 hpt M 4 {72 rotate 0 hpt L} repeat
  closepath fill grestore} def
/Circle {stroke [] 0 setdash 2 copy
  hpt 0 360 arc stroke Pnt} def
/CircleF {stroke [] 0 setdash hpt 0 360 arc fill} def
/C0 {BL [] 0 setdash 2 copy moveto vpt 90 450 arc} bind def
/C1 {BL [] 0 setdash 2 copy moveto
	2 copy vpt 0 90 arc closepath fill
	vpt 0 360 arc closepath} bind def
/C2 {BL [] 0 setdash 2 copy moveto
	2 copy vpt 90 180 arc closepath fill
	vpt 0 360 arc closepath} bind def
/C3 {BL [] 0 setdash 2 copy moveto
	2 copy vpt 0 180 arc closepath fill
	vpt 0 360 arc closepath} bind def
/C4 {BL [] 0 setdash 2 copy moveto
	2 copy vpt 180 270 arc closepath fill
	vpt 0 360 arc closepath} bind def
/C5 {BL [] 0 setdash 2 copy moveto
	2 copy vpt 0 90 arc
	2 copy moveto
	2 copy vpt 180 270 arc closepath fill
	vpt 0 360 arc} bind def
/C6 {BL [] 0 setdash 2 copy moveto
	2 copy vpt 90 270 arc closepath fill
	vpt 0 360 arc closepath} bind def
/C7 {BL [] 0 setdash 2 copy moveto
	2 copy vpt 0 270 arc closepath fill
	vpt 0 360 arc closepath} bind def
/C8 {BL [] 0 setdash 2 copy moveto
	2 copy vpt 270 360 arc closepath fill
	vpt 0 360 arc closepath} bind def
/C9 {BL [] 0 setdash 2 copy moveto
	2 copy vpt 270 450 arc closepath fill
	vpt 0 360 arc closepath} bind def
/C10 {BL [] 0 setdash 2 copy 2 copy moveto vpt 270 360 arc closepath fill
	2 copy moveto
	2 copy vpt 90 180 arc closepath fill
	vpt 0 360 arc closepath} bind def
/C11 {BL [] 0 setdash 2 copy moveto
	2 copy vpt 0 180 arc closepath fill
	2 copy moveto
	2 copy vpt 270 360 arc closepath fill
	vpt 0 360 arc closepath} bind def
/C12 {BL [] 0 setdash 2 copy moveto
	2 copy vpt 180 360 arc closepath fill
	vpt 0 360 arc closepath} bind def
/C13 {BL [] 0 setdash 2 copy moveto
	2 copy vpt 0 90 arc closepath fill
	2 copy moveto
	2 copy vpt 180 360 arc closepath fill
	vpt 0 360 arc closepath} bind def
/C14 {BL [] 0 setdash 2 copy moveto
	2 copy vpt 90 360 arc closepath fill
	vpt 0 360 arc} bind def
/C15 {BL [] 0 setdash 2 copy vpt 0 360 arc closepath fill
	vpt 0 360 arc closepath} bind def
/Rec {newpath 4 2 roll moveto 1 index 0 rlineto 0 exch rlineto
	neg 0 rlineto closepath} bind def
/Square {dup Rec} bind def
/Bsquare {vpt sub exch vpt sub exch vpt2 Square} bind def
/S0 {BL [] 0 setdash 2 copy moveto 0 vpt rlineto BL Bsquare} bind def
/S1 {BL [] 0 setdash 2 copy vpt Square fill Bsquare} bind def
/S2 {BL [] 0 setdash 2 copy exch vpt sub exch vpt Square fill Bsquare} bind def
/S3 {BL [] 0 setdash 2 copy exch vpt sub exch vpt2 vpt Rec fill Bsquare} bind def
/S4 {BL [] 0 setdash 2 copy exch vpt sub exch vpt sub vpt Square fill Bsquare} bind def
/S5 {BL [] 0 setdash 2 copy 2 copy vpt Square fill
	exch vpt sub exch vpt sub vpt Square fill Bsquare} bind def
/S6 {BL [] 0 setdash 2 copy exch vpt sub exch vpt sub vpt vpt2 Rec fill Bsquare} bind def
/S7 {BL [] 0 setdash 2 copy exch vpt sub exch vpt sub vpt vpt2 Rec fill
	2 copy vpt Square fill Bsquare} bind def
/S8 {BL [] 0 setdash 2 copy vpt sub vpt Square fill Bsquare} bind def
/S9 {BL [] 0 setdash 2 copy vpt sub vpt vpt2 Rec fill Bsquare} bind def
/S10 {BL [] 0 setdash 2 copy vpt sub vpt Square fill 2 copy exch vpt sub exch vpt Square fill
	Bsquare} bind def
/S11 {BL [] 0 setdash 2 copy vpt sub vpt Square fill 2 copy exch vpt sub exch vpt2 vpt Rec fill
	Bsquare} bind def
/S12 {BL [] 0 setdash 2 copy exch vpt sub exch vpt sub vpt2 vpt Rec fill Bsquare} bind def
/S13 {BL [] 0 setdash 2 copy exch vpt sub exch vpt sub vpt2 vpt Rec fill
	2 copy vpt Square fill Bsquare} bind def
/S14 {BL [] 0 setdash 2 copy exch vpt sub exch vpt sub vpt2 vpt Rec fill
	2 copy exch vpt sub exch vpt Square fill Bsquare} bind def
/S15 {BL [] 0 setdash 2 copy Bsquare fill Bsquare} bind def
/D0 {gsave translate 45 rotate 0 0 S0 stroke grestore} bind def
/D1 {gsave translate 45 rotate 0 0 S1 stroke grestore} bind def
/D2 {gsave translate 45 rotate 0 0 S2 stroke grestore} bind def
/D3 {gsave translate 45 rotate 0 0 S3 stroke grestore} bind def
/D4 {gsave translate 45 rotate 0 0 S4 stroke grestore} bind def
/D5 {gsave translate 45 rotate 0 0 S5 stroke grestore} bind def
/D6 {gsave translate 45 rotate 0 0 S6 stroke grestore} bind def
/D7 {gsave translate 45 rotate 0 0 S7 stroke grestore} bind def
/D8 {gsave translate 45 rotate 0 0 S8 stroke grestore} bind def
/D9 {gsave translate 45 rotate 0 0 S9 stroke grestore} bind def
/D10 {gsave translate 45 rotate 0 0 S10 stroke grestore} bind def
/D11 {gsave translate 45 rotate 0 0 S11 stroke grestore} bind def
/D12 {gsave translate 45 rotate 0 0 S12 stroke grestore} bind def
/D13 {gsave translate 45 rotate 0 0 S13 stroke grestore} bind def
/D14 {gsave translate 45 rotate 0 0 S14 stroke grestore} bind def
/D15 {gsave translate 45 rotate 0 0 S15 stroke grestore} bind def
/DiaE {stroke [] 0 setdash vpt add M
  hpt neg vpt neg V hpt vpt neg V
  hpt vpt V hpt neg vpt V closepath stroke} def
/BoxE {stroke [] 0 setdash exch hpt sub exch vpt add M
  0 vpt2 neg V hpt2 0 V 0 vpt2 V
  hpt2 neg 0 V closepath stroke} def
/TriUE {stroke [] 0 setdash vpt 1.12 mul add M
  hpt neg vpt -1.62 mul V
  hpt 2 mul 0 V
  hpt neg vpt 1.62 mul V closepath stroke} def
/TriDE {stroke [] 0 setdash vpt 1.12 mul sub M
  hpt neg vpt 1.62 mul V
  hpt 2 mul 0 V
  hpt neg vpt -1.62 mul V closepath stroke} def
/PentE {stroke [] 0 setdash gsave
  translate 0 hpt M 4 {72 rotate 0 hpt L} repeat
  closepath stroke grestore} def
/CircE {stroke [] 0 setdash 
  hpt 0 360 arc stroke} def
/Opaque {gsave closepath 1 setgray fill grestore 0 setgray closepath} def
/DiaW {stroke [] 0 setdash vpt add M
  hpt neg vpt neg V hpt vpt neg V
  hpt vpt V hpt neg vpt V Opaque stroke} def
/BoxW {stroke [] 0 setdash exch hpt sub exch vpt add M
  0 vpt2 neg V hpt2 0 V 0 vpt2 V
  hpt2 neg 0 V Opaque stroke} def
/TriUW {stroke [] 0 setdash vpt 1.12 mul add M
  hpt neg vpt -1.62 mul V
  hpt 2 mul 0 V
  hpt neg vpt 1.62 mul V Opaque stroke} def
/TriDW {stroke [] 0 setdash vpt 1.12 mul sub M
  hpt neg vpt 1.62 mul V
  hpt 2 mul 0 V
  hpt neg vpt -1.62 mul V Opaque stroke} def
/PentW {stroke [] 0 setdash gsave
  translate 0 hpt M 4 {72 rotate 0 hpt L} repeat
  Opaque stroke grestore} def
/CircW {stroke [] 0 setdash 
  hpt 0 360 arc Opaque stroke} def
/BoxFill {gsave Rec 1 setgray fill grestore} def
/Density {
  /Fillden exch def
  currentrgbcolor
  /ColB exch def /ColG exch def /ColR exch def
  /ColR ColR Fillden mul Fillden sub 1 add def
  /ColG ColG Fillden mul Fillden sub 1 add def
  /ColB ColB Fillden mul Fillden sub 1 add def
  ColR ColG ColB setrgbcolor} def
/BoxColFill {gsave Rec PolyFill} def
/PolyFill {gsave Density fill grestore grestore} def
/h {rlineto rlineto rlineto gsave closepath fill grestore} bind def
%
% PostScript Level 1 Pattern Fill routine for rectangles
% Usage: x y w h s a XX PatternFill
%	x,y = lower left corner of box to be filled
%	w,h = width and height of box
%	  a = angle in degrees between lines and x-axis
%	 XX = 0/1 for no/yes cross-hatch
%
/PatternFill {gsave /PFa [ 9 2 roll ] def
  PFa 0 get PFa 2 get 2 div add PFa 1 get PFa 3 get 2 div add translate
  PFa 2 get -2 div PFa 3 get -2 div PFa 2 get PFa 3 get Rec
  gsave 1 setgray fill grestore clip
  currentlinewidth 0.5 mul setlinewidth
  /PFs PFa 2 get dup mul PFa 3 get dup mul add sqrt def
  0 0 M PFa 5 get rotate PFs -2 div dup translate
  0 1 PFs PFa 4 get div 1 add floor cvi
	{PFa 4 get mul 0 M 0 PFs V} for
  0 PFa 6 get ne {
	0 1 PFs PFa 4 get div 1 add floor cvi
	{PFa 4 get mul 0 2 1 roll M PFs 0 V} for
 } if
  stroke grestore} def
%
/languagelevel where
 {pop languagelevel} {1} ifelse
 2 lt
	{/InterpretLevel1 true def}
	{/InterpretLevel1 Level1 def}
 ifelse
%
% PostScript level 2 pattern fill definitions
%
/Level2PatternFill {
/Tile8x8 {/PaintType 2 /PatternType 1 /TilingType 1 /BBox [0 0 8 8] /XStep 8 /YStep 8}
	bind def
/KeepColor {currentrgbcolor [/Pattern /DeviceRGB] setcolorspace} bind def
<< Tile8x8
 /PaintProc {0.5 setlinewidth pop 0 0 M 8 8 L 0 8 M 8 0 L stroke} 
>> matrix makepattern
/Pat1 exch def
<< Tile8x8
 /PaintProc {0.5 setlinewidth pop 0 0 M 8 8 L 0 8 M 8 0 L stroke
	0 4 M 4 8 L 8 4 L 4 0 L 0 4 L stroke}
>> matrix makepattern
/Pat2 exch def
<< Tile8x8
 /PaintProc {0.5 setlinewidth pop 0 0 M 0 8 L
	8 8 L 8 0 L 0 0 L fill}
>> matrix makepattern
/Pat3 exch def
<< Tile8x8
 /PaintProc {0.5 setlinewidth pop -4 8 M 8 -4 L
	0 12 M 12 0 L stroke}
>> matrix makepattern
/Pat4 exch def
<< Tile8x8
 /PaintProc {0.5 setlinewidth pop -4 0 M 8 12 L
	0 -4 M 12 8 L stroke}
>> matrix makepattern
/Pat5 exch def
<< Tile8x8
 /PaintProc {0.5 setlinewidth pop -2 8 M 4 -4 L
	0 12 M 8 -4 L 4 12 M 10 0 L stroke}
>> matrix makepattern
/Pat6 exch def
<< Tile8x8
 /PaintProc {0.5 setlinewidth pop -2 0 M 4 12 L
	0 -4 M 8 12 L 4 -4 M 10 8 L stroke}
>> matrix makepattern
/Pat7 exch def
<< Tile8x8
 /PaintProc {0.5 setlinewidth pop 8 -2 M -4 4 L
	12 0 M -4 8 L 12 4 M 0 10 L stroke}
>> matrix makepattern
/Pat8 exch def
<< Tile8x8
 /PaintProc {0.5 setlinewidth pop 0 -2 M 12 4 L
	-4 0 M 12 8 L -4 4 M 8 10 L stroke}
>> matrix makepattern
/Pat9 exch def
/Pattern1 {PatternBgnd KeepColor Pat1 setpattern} bind def
/Pattern2 {PatternBgnd KeepColor Pat2 setpattern} bind def
/Pattern3 {PatternBgnd KeepColor Pat3 setpattern} bind def
/Pattern4 {PatternBgnd KeepColor Landscape {Pat5} {Pat4} ifelse setpattern} bind def
/Pattern5 {PatternBgnd KeepColor Landscape {Pat4} {Pat5} ifelse setpattern} bind def
/Pattern6 {PatternBgnd KeepColor Landscape {Pat9} {Pat6} ifelse setpattern} bind def
/Pattern7 {PatternBgnd KeepColor Landscape {Pat8} {Pat7} ifelse setpattern} bind def
} def
%
%
%End of PostScript Level 2 code
%
/PatternBgnd {
  TransparentPatterns {} {gsave 1 setgray fill grestore} ifelse
} def
%
% Substitute for Level 2 pattern fill codes with
% grayscale if Level 2 support is not selected.
%
/Level1PatternFill {
/Pattern1 {0.250 Density} bind def
/Pattern2 {0.500 Density} bind def
/Pattern3 {0.750 Density} bind def
/Pattern4 {0.125 Density} bind def
/Pattern5 {0.375 Density} bind def
/Pattern6 {0.625 Density} bind def
/Pattern7 {0.875 Density} bind def
} def
%
% Now test for support of Level 2 code
%
Level1 {Level1PatternFill} {Level2PatternFill} ifelse
%
/Symbol-Oblique /Symbol findfont [1 0 .167 1 0 0] makefont
dup length dict begin {1 index /FID eq {pop pop} {def} ifelse} forall
currentdict end definefont pop
end
%%EndProlog
gnudict begin
gsave
doclip
50 50 translate
0.050 0.050 scale
0 setgray
newpath
(Helvetica) findfont 140 scalefont setfont
1.000 UL
LTb
1.000 UL
LTa
854 448 M
4277 0 V
stroke
LTb
854 448 M
63 0 V
4214 0 R
-63 0 V
770 448 M
( 0) Rshow
1.000 UL
LTb
1.000 UL
LTa
854 561 M
4277 0 V
stroke
LTb
854 561 M
31 0 V
4246 0 R
-31 0 V
stroke
LTa
854 673 M
4277 0 V
stroke
LTb
854 673 M
31 0 V
4246 0 R
-31 0 V
stroke
LTa
854 786 M
4277 0 V
stroke
LTb
854 786 M
31 0 V
4246 0 R
-31 0 V
stroke
LTa
854 898 M
4277 0 V
stroke
LTb
854 898 M
31 0 V
4246 0 R
-31 0 V
stroke
LTa
854 1011 M
4277 0 V
stroke
LTb
854 1011 M
63 0 V
4214 0 R
-63 0 V
-4298 0 R
( 5000) Rshow
1.000 UL
LTb
1.000 UL
LTa
854 1124 M
4277 0 V
stroke
LTb
854 1124 M
31 0 V
4246 0 R
-31 0 V
stroke
LTa
854 1236 M
4277 0 V
stroke
LTb
854 1236 M
31 0 V
4246 0 R
-31 0 V
stroke
LTa
854 1349 M
4277 0 V
stroke
LTb
854 1349 M
31 0 V
4246 0 R
-31 0 V
stroke
LTa
854 1461 M
4277 0 V
stroke
LTb
854 1461 M
31 0 V
4246 0 R
-31 0 V
stroke
LTa
854 1574 M
4277 0 V
stroke
LTb
854 1574 M
63 0 V
4214 0 R
-63 0 V
-4298 0 R
( 10000) Rshow
1.000 UL
LTb
1.000 UL
LTa
854 1687 M
4277 0 V
stroke
LTb
854 1687 M
31 0 V
4246 0 R
-31 0 V
stroke
LTa
854 1799 M
4277 0 V
stroke
LTb
854 1799 M
31 0 V
4246 0 R
-31 0 V
stroke
LTa
854 1912 M
4277 0 V
stroke
LTb
854 1912 M
31 0 V
4246 0 R
-31 0 V
stroke
LTa
854 2024 M
4277 0 V
stroke
LTb
854 2024 M
31 0 V
4246 0 R
-31 0 V
stroke
LTa
854 2137 M
4277 0 V
stroke
LTb
854 2137 M
63 0 V
4214 0 R
-63 0 V
-4298 0 R
( 15000) Rshow
1.000 UL
LTb
1.000 UL
LTa
854 2250 M
4277 0 V
stroke
LTb
854 2250 M
31 0 V
4246 0 R
-31 0 V
stroke
LTa
854 2362 M
4277 0 V
stroke
LTb
854 2362 M
31 0 V
4246 0 R
-31 0 V
stroke
LTa
854 2475 M
4277 0 V
stroke
LTb
854 2475 M
31 0 V
4246 0 R
-31 0 V
stroke
LTa
854 2587 M
2786 0 V
1407 0 R
84 0 V
stroke
LTb
854 2587 M
31 0 V
4246 0 R
-31 0 V
stroke
LTa
854 2700 M
2786 0 V
1407 0 R
84 0 V
stroke
LTb
854 2700 M
63 0 V
4214 0 R
-63 0 V
-4298 0 R
( 20000) Rshow
1.000 UL
LTb
1.000 UL
LTa
854 2813 M
2786 0 V
1407 0 R
84 0 V
stroke
LTb
854 2813 M
31 0 V
4246 0 R
-31 0 V
stroke
LTa
854 2925 M
2786 0 V
1407 0 R
84 0 V
stroke
LTb
854 2925 M
31 0 V
4246 0 R
-31 0 V
stroke
LTa
854 3038 M
2786 0 V
1407 0 R
84 0 V
stroke
LTb
854 3038 M
31 0 V
4246 0 R
-31 0 V
stroke
LTa
854 3150 M
2786 0 V
1407 0 R
84 0 V
stroke
LTb
854 3150 M
31 0 V
4246 0 R
-31 0 V
stroke
LTa
854 3263 M
4277 0 V
stroke
LTb
854 3263 M
63 0 V
4214 0 R
-63 0 V
-4298 0 R
( 25000) Rshow
1.000 UL
LTb
1567 448 M
0 63 V
0 2752 R
0 -63 V
0 -2892 R
(text-10) Cshow
1.000 UL
LTb
2280 448 M
0 63 V
0 2752 R
0 -63 V
0 -2892 R
(text-50) Cshow
1.000 UL
LTb
2993 448 M
0 63 V
0 2752 R
0 -63 V
0 -2892 R
(text-100) Cshow
1.000 UL
LTb
3705 448 M
0 63 V
0 2752 R
0 -63 V
0 -2892 R
(text-300) Cshow
1.000 UL
LTb
4418 448 M
0 63 V
0 2752 R
0 -63 V
0 -2892 R
(text-1000) Cshow
1.000 UL
LTb
1.000 UL
LTb
854 3263 N
854 448 L
4277 0 V
0 2815 V
-4277 0 V
Z stroke
LCb setrgbcolor
112 1855 M
currentpoint gsave translate -270 rotate 0 0 M
(Throughput \(instances/s\)) Cshow
grestore
LTb
LCb setrgbcolor
2992 98 M
(Text Generator Type) Cshow
LTb
2992 3473 M
(Throughput of VHT2 and MHT for Text Generator) Cshow
1.000 UP
1.000 UL
LTb
1.000 UL
LTb
3640 2500 N
0 700 V
1407 0 V
0 -700 V
-1407 0 V
Z stroke
3640 3200 M
1407 0 V
% Begin plot #1
stroke
LT0
LCb setrgbcolor
4480 3130 M
(VHT2-par-1) Rshow
LT0
4564 3095 399 70 40 45 2 PatternFill
4564 3095 N
399 0 V
0 70 V
-399 0 V
0 -70 V
Z stroke
LT0
1358 448 113 1266 40 45 2 PatternFill
1358 448 N
0 1265 V
112 0 V
0 -1265 V
-112 0 V
Z stroke
2071 448 113 2125 40 45 2 PatternFill
2071 448 N
0 2124 V
112 0 V
0 -2124 V
-112 0 V
Z stroke
2784 448 113 1445 40 45 2 PatternFill
2784 448 N
0 1444 V
112 0 V
0 -1444 V
-112 0 V
Z stroke
3497 448 113 848 40 45 2 PatternFill
3497 448 N
0 847 V
112 0 V
0 -847 V
-112 0 V
Z stroke
4209 448 113 192 40 45 2 PatternFill
4209 448 N
0 191 V
112 0 V
0 -191 V
-112 0 V
Z stroke
% End plot #1
% Begin plot #2
1.000 UL
LT1
LCb setrgbcolor
4480 2990 M
(VHT2-par-3) Rshow
LT1
1 4564 2955 399 70 BoxColFill
4564 2955 N
399 0 V
0 70 V
-399 0 V
0 -70 V
Z stroke
LT1
1 1460 448 113 2166 BoxColFill
1460 448 N
0 2165 V
112 0 V
0 -2165 V
-112 0 V
Z stroke
1 2173 448 113 1760 BoxColFill
2173 448 N
0 1759 V
112 0 V
0 -1759 V
-112 0 V
Z stroke
1 2886 448 113 1682 BoxColFill
2886 448 N
0 1681 V
112 0 V
0 -1681 V
-112 0 V
Z stroke
1 3598 448 113 1374 BoxColFill
3598 448 N
0 1373 V
112 0 V
0 -1373 V
-112 0 V
Z stroke
1 4311 448 113 427 BoxColFill
4311 448 N
0 426 V
112 0 V
0 -426 V
-112 0 V
Z stroke
% End plot #2
% Begin plot #3
1.000 UL
LT2
LCb setrgbcolor
4480 2850 M
(VHT2-par-6) Rshow
LT2
4564 2815 399 70 80 45 0 PatternFill
4564 2815 N
399 0 V
0 70 V
-399 0 V
0 -70 V
Z stroke
LT2
1562 448 113 1817 80 45 0 PatternFill
1562 448 N
0 1816 V
112 0 V
0 -1816 V
-112 0 V
Z stroke
2275 448 113 1633 80 45 0 PatternFill
2275 448 N
0 1632 V
112 0 V
0 -1632 V
-112 0 V
Z stroke
2987 448 113 1445 80 45 0 PatternFill
2987 448 N
0 1444 V
112 0 V
0 -1444 V
-112 0 V
Z stroke
3700 448 113 1127 80 45 0 PatternFill
3700 448 N
0 1126 V
112 0 V
0 -1126 V
-112 0 V
Z stroke
4413 448 113 426 80 45 0 PatternFill
4413 448 N
0 425 V
112 0 V
0 -425 V
-112 0 V
Z stroke
% End plot #3
% Begin plot #4
1.000 UL
LT3
LCb setrgbcolor
4480 2710 M
(VHT2-par-9) Rshow
LT3
4564 2675 399 70 80 -45 0 PatternFill
4564 2675 N
399 0 V
0 70 V
-399 0 V
0 -70 V
Z stroke
LT3
1664 448 113 2086 80 -45 0 PatternFill
1664 448 N
0 2085 V
112 0 V
0 -2085 V
-112 0 V
Z stroke
2376 448 113 1847 80 -45 0 PatternFill
2376 448 N
0 1846 V
112 0 V
0 -1846 V
-112 0 V
Z stroke
3089 448 113 1760 80 -45 0 PatternFill
3089 448 N
0 1759 V
112 0 V
0 -1759 V
-112 0 V
Z stroke
3802 448 113 1150 80 -45 0 PatternFill
3802 448 N
0 1149 V
112 0 V
0 -1149 V
-112 0 V
Z stroke
4515 448 113 416 80 -45 0 PatternFill
4515 448 N
0 415 V
112 0 V
0 -415 V
-112 0 V
Z stroke
% End plot #4
% Begin plot #5
1.000 UL
LT4
LCb setrgbcolor
4480 2570 M
(MHT) Rshow
LT4
4564 2535 399 70 40 30 0 PatternFill
4564 2535 N
399 0 V
0 70 V
-399 0 V
0 -70 V
Z stroke
LT4
1765 448 113 1760 40 30 0 PatternFill
1765 448 N
0 1759 V
112 0 V
0 -1759 V
-112 0 V
Z stroke
2478 448 113 1657 40 30 0 PatternFill
2478 448 N
0 1656 V
112 0 V
0 -1656 V
-112 0 V
Z stroke
3191 448 113 1847 40 30 0 PatternFill
3191 448 N
0 1846 V
112 0 V
0 -1846 V
-112 0 V
Z stroke
3904 448 113 1212 40 30 0 PatternFill
3904 448 N
0 1211 V
112 0 V
0 -1211 V
-112 0 V
Z stroke
4617 448 113 448 40 30 0 PatternFill
4617 448 N
0 447 V
112 0 V
0 -447 V
-112 0 V
Z stroke
% End plot #5
1.000 UL
LTb
854 3263 N
854 448 L
4277 0 V
0 2815 V
-4277 0 V
Z stroke
1.000 UP
1.000 UL
LTb
stroke
grestore
end
showpage
%%Trailer
%%DocumentFonts: Helvetica
